X;Y;id;p0;p1;p2;p3;p4;nbComp;nbPorteOuv;Code;d1;d2;dia
2;3;1;0;0;4;2;0;1;7;C;3;3;3
2;3;2;0;1;4;1;0;1;6;C;3;3;4
2;3;3;0;1;4;1;0;1;6;C;3;3;4
2;3;4;0;3;2;1;0;1;5;P;3;3;4
2;3;5;0;1;4;1;0;1;6;C;3;3;4
2;3;6;0;2;4;0;0;2;5;I;None;None;None
2;3;7;0;2;4;0;0;1;5;P;3;5;5
2;3;8;0;4;2;0;0;2;4;I;None;None;None
2;3;9;0;1;4;1;0;1;6;C;3;3;4
2;3;10;0;2;4;0;0;1;5;P;5;3;5
2;3;11;0;2;4;0;0;2;5;I;None;None;None
2;3;12;0;4;2;0;0;2;4;I;None;None;None
2;3;13;0;3;2;1;0;1;5;P;3;3;4
2;3;14;0;4;2;0;0;2;4;I;None;None;None
2;3;15;0;4;2;0;0;2;4;I;None;None;None
2;3;16;0;6;0;0;0;3;3;I;None;None;None
2;3;17;0;2;2;2;0;1;6;C;3;3;3
2;3;18;1;1;3;1;0;2;5;I;None;None;None
2;3;19;0;3;2;1;0;1;5;P;3;3;4
2;3;20;1;3;1;1;0;2;4;I;None;None;None
2;3;21;1;1;3;1;0;2;5;I;None;None;None
2;3;22;2;0;4;0;0;3;4;I;None;None;None
2;3;23;1;2;3;0;0;2;4;I;None;None;None
2;3;24;2;2;2;0;0;3;3;I;None;None;None
2;3;25;0;3;2;1;0;1;5;P;3;3;4
2;3;26;1;2;3;0;0;2;4;I;None;None;None
2;3;27;0;4;2;0;0;2;4;I;None;None;None
2;3;28;1;4;1;0;0;3;3;I;None;None;None
2;3;29;1;3;1;1;0;2;4;I;None;None;None
2;3;30;2;2;2;0;0;3;3;I;None;None;None
2;3;31;1;4;1;0;0;3;3;I;None;None;None
2;3;32;2;4;0;0;0;4;2;I;None;None;None
2;3;33;0;0;6;0;0;1;6;C;3;3;3
2;3;34;0;2;4;0;0;1;5;P;3;3;5
2;3;35;0;2;4;0;0;1;5;P;3;3;5
2;3;36;1;2;3;0;0;2;4;I;None;None;None
2;3;37;0;2;4;0;0;1;5;P;3;3;5
2;3;38;0;4;2;0;0;2;4;I;None;None;None
2;3;39;0;4;2;0;0;2;4;I;None;None;None
2;3;40;1;4;1;0;0;3;3;I;None;None;None
2;3;41;0;2;4;0;0;1;5;P;3;3;5
2;3;42;0;4;2;0;0;2;4;I;None;None;None
2;3;43;0;4;2;0;0;2;4;I;None;None;None
2;3;44;1;4;1;0;0;3;3;I;None;None;None
2;3;45;1;2;3;0;0;2;4;I;None;None;None
2;3;46;1;4;1;0;0;3;3;I;None;None;None
2;3;47;1;4;1;0;0;3;3;I;None;None;None
2;3;48;2;4;0;0;0;4;2;I;None;None;None
2;3;49;0;2;4;0;0;1;5;P;3;3;5
2;3;50;1;2;3;0;0;2;4;I;None;None;None
2;3;51;0;4;2;0;0;2;4;I;None;None;None
2;3;52;2;2;2;0;0;3;3;I;None;None;None
2;3;53;1;2;3;0;0;2;4;I;None;None;None
2;3;54;2;2;2;0;0;3;3;I;None;None;None
2;3;55;1;4;1;0;0;3;3;I;None;None;None
2;3;56;3;2;1;0;0;4;2;I;None;None;None
2;3;57;0;4;2;0;0;2;4;I;None;None;None
2;3;58;1;4;1;0;0;3;3;I;None;None;None
2;3;59;0;6;0;0;0;3;3;I;None;None;None
2;3;60;2;4;0;0;0;4;2;I;None;None;None
2;3;61;2;2;2;0;0;3;3;I;None;None;None
2;3;62;3;2;1;0;0;4;2;I;None;None;None
2;3;63;2;4;0;0;0;4;2;I;None;None;None
2;3;64;4;2;0;0;0;5;1;I;None;None;None
2;3;65;0;2;2;2;0;1;6;C;3;3;3
2;3;66;0;3;2;1;0;1;5;P;3;3;4
2;3;67;1;1;3;1;0;2;5;I;None;None;None
2;3;68;1;3;1;1;0;2;4;I;None;None;None
2;3;69;0;3;2;1;0;1;5;P;3;3;4
2;3;70;0;4;2;0;0;2;4;I;None;None;None
2;3;71;1;2;3;0;0;2;4;I;None;None;None
2;3;72;1;4;1;0;0;3;3;I;None;None;None
2;3;73;1;1;3;1;0;2;5;I;None;None;None
2;3;74;1;2;3;0;0;2;4;I;None;None;None
2;3;75;2;0;4;0;0;3;4;I;None;None;None
2;3;76;2;2;2;0;0;3;3;I;None;None;None
2;3;77;1;3;1;1;0;2;4;I;None;None;None
2;3;78;1;4;1;0;0;3;3;I;None;None;None
2;3;79;2;2;2;0;0;3;3;I;None;None;None
2;3;80;2;4;0;0;0;4;2;I;None;None;None
2;3;81;0;4;0;2;0;1;5;P;3;3;3
2;3;82;1;3;1;1;0;2;4;I;None;None;None
2;3;83;1;3;1;1;0;2;4;I;None;None;None
2;3;84;2;3;0;1;0;3;3;I;None;None;None
2;3;85;1;3;1;1;0;2;4;I;None;None;None
2;3;86;2;2;2;0;0;3;3;I;None;None;None
2;3;87;2;2;2;0;0;3;3;I;None;None;None
2;3;88;3;2;1;0;0;4;2;I;None;None;None
2;3;89;1;3;1;1;0;2;4;I;None;None;None
2;3;90;2;2;2;0;0;3;3;I;None;None;None
2;3;91;2;2;2;0;0;3;3;I;None;None;None
2;3;92;3;2;1;0;0;4;2;I;None;None;None
2;3;93;2;3;0;1;0;3;3;I;None;None;None
2;3;94;3;2;1;0;0;4;2;I;None;None;None
2;3;95;3;2;1;0;0;4;2;I;None;None;None
2;3;96;4;2;0;0;0;5;1;I;None;None;None
2;3;97;0;2;4;0;0;1;5;P;3;3;5
2;3;98;0;4;2;0;0;2;4;I;None;None;None
2;3;99;1;2;3;0;0;2;4;I;None;None;None
2;3;100;2;2;2;0;0;3;3;I;None;None;None
2;3;101;0;4;2;0;0;2;4;I;None;None;None
2;3;102;0;6;0;0;0;3;3;I;None;None;None
2;3;103;1;4;1;0;0;3;3;I;None;None;None
2;3;104;2;4;0;0;0;4;2;I;None;None;None
2;3;105;1;2;3;0;0;2;4;I;None;None;None
2;3;106;1;4;1;0;0;3;3;I;None;None;None
2;3;107;2;2;2;0;0;3;3;I;None;None;None
2;3;108;3;2;1;0;0;4;2;I;None;None;None
2;3;109;2;2;2;0;0;3;3;I;None;None;None
2;3;110;2;4;0;0;0;4;2;I;None;None;None
2;3;111;3;2;1;0;0;4;2;I;None;None;None
2;3;112;4;2;0;0;0;5;1;I;None;None;None
2;3;113;0;4;2;0;0;2;4;I;None;None;None
2;3;114;1;4;1;0;0;3;3;I;None;None;None
2;3;115;1;4;1;0;0;3;3;I;None;None;None
2;3;116;3;2;1;0;0;4;2;I;None;None;None
2;3;117;1;4;1;0;0;3;3;I;None;None;None
2;3;118;2;4;0;0;0;4;2;I;None;None;None
2;3;119;2;4;0;0;0;4;2;I;None;None;None
2;3;120;4;2;0;0;0;5;1;I;None;None;None
2;3;121;1;4;1;0;0;3;3;I;None;None;None
2;3;122;2;4;0;0;0;4;2;I;None;None;None
2;3;123;2;4;0;0;0;4;2;I;None;None;None
2;3;124;4;2;0;0;0;5;1;I;None;None;None
2;3;125;3;2;1;0;0;4;2;I;None;None;None
2;3;126;4;2;0;0;0;5;1;I;None;None;None
2;3;127;4;2;0;0;0;5;1;I;None;None;None
2;3;128;6;0;0;0;0;6;0;I;None;None;None
